asgiref==3.4.1
django-cors-headers==3.8.0
Django==3.2.6
django-admin-honeypot==1.1.0
django-admin-sortable==2.2.4
django-admin-sortable2==1.0
django-autoslug==1.9.8
django-ckeditor==6.1.0
django-crispy==1.8.1
django-environ==0.9.0
django-grappelli==2.15.1
django-js-asset==1.2.2
django-mptt==0.12.0
django-smuggler==1.0.3
django-solo==1.1.5
django-sortedm2m==3.0.2
djangorestframework==3.12.4
Pillow==8.3.2
django-rest==0.8.7
django-rest-framework==0.1.0
psycopg2-binary==2.9.1
pytz==2021.1
six==1.16.0
sqlparse==0.4.1
env-file==2020.12.3
